…
    # Fix any anomalies
    population <- population %>%
      mutate(
        year = as.numeric(year),
        population = as.numeric(population),
        country = as.character(country)
      )

    # Store the corrected data in population2
    population2 <- population
    population2

    ## # A tibble: 4,060 × 3
    ##    country      year population
    ##    <chr>       <dbl>      <dbl>
    ##  1 Afghanistan  1995   17586073
    ##  2 Afghanistan  1996   18415307
    ##  3 Afghanistan  1997   19021226
    ##  4 Afghanistan  1998   19496836
    ##  5 Afghanistan  1999   19987071
    ##  6 Afghanistan  2000   20595360
    ##  7 Afghanistan  2001   21347782
    ##  8 Afghanistan  2002   22202806
    ##  9 Afghanistan  2003   23116142
    ## 10 Afghanistan  2004   24018682
    ## # ℹ 4,050 more rows
…
#### 3.1.2 Perform a pivot operation to make the data tidy, storing the result in `who2`.

    who2 <- who %>%
      pivot_longer(cols = starts_with("new"),
                   names_to = "key",
                   values_to = "cases",
                   values_drop_na = TRUE)
    who2

    ## # A tibble: 76,046 × 6
    ##    country     iso2  iso3   year key          cases
    ##    <chr>       <chr> <chr> <dbl> <chr>        <dbl>
    ##  1 Afghanistan AF    AFG    1997 new_sp_m014      0
    ##  2 Afghanistan AF    AFG    1997 new_sp_m1524    10
    ##  3 Afghanistan AF    AFG    1997 new_sp_m2534     6
    ##  4 Afghanistan AF    AFG    1997 new_sp_m3544     3
    ##  5 Afghanistan AF    AFG    1997 new_sp_m4554     5
    ##  6 Afghanistan AF    AFG    1997 new_sp_m5564     2
    ##  7 Afghanistan AF    AFG    1997 new_sp_m65       0
    ##  8 Afghanistan AF    AFG    1997 new_sp_f014      5
    ##  9 Afghanistan AF    AFG    1997 new_sp_f1524    38
    ## 10 Afghanistan AF    AFG    1997 new_sp_f2534    36
    ## # ℹ 76,036 more rows
…
    who3

    ## # A tibble: 76,046 × 7
    ##    country     iso2  iso3   year tuberculosis_type sexage cases
    ##    <chr>       <chr> <chr> <dbl> <chr>             <chr>  <dbl>
    ##  1 Afghanistan AF    AFG    1997 sp                m014       0
    ##  2 Afghanistan AF    AFG    1997 sp                m1524     10
    ##  3 Afghanistan AF    AFG    1997 sp                m2534      6
    ##  4 Afghanistan AF    AFG    1997 sp                m3544      3
    ##  5 Afghanistan AF    AFG    1997 sp                m4554      5
    ##  6 Afghanistan AF    AFG    1997 sp                m5564      2
    ##  7 Afghanistan AF    AFG    1997 sp                m65        0
    ##  8 Afghanistan AF    AFG    1997 sp                f014       5
    ##  9 Afghanistan AF    AFG    1997 sp                f1524     38
    ## 10 Afghanistan AF    AFG    1997 sp                f2534     36
    ## # ℹ 76,036 more rows
…
      separate(sexage, into = c("sex", "age"), sep = 1) %>%
      separate(age, into = c("age_from", "age_until"), sep = -2) %>%
      mutate(
        age_from = as.numeric(age_from),  # Ensure age_from is numeric
        age_until = as.numeric(age_until), # Ensure age_until is numeric
        age_from = 
          if_else(
            condition = age_until == 65,  # Directly compare age_until with 65
            true = 65,
            false = age_from
          )
        )
    who_tidy

    ## # A tibble: 76,046 × 9
    ##    country    iso2  iso3   year tuberculosis_type sex   age_from age_until cases
    ##    <chr>      <chr> <chr> <dbl> <chr>             <chr>    <dbl>     <dbl> <dbl>
    ##  1 Afghanist… AF    AFG    1997 sp                m            0        14     0
    ##  2 Afghanist… AF    AFG    1997 sp                m           15        24    10
    ##  3 Afghanist… AF    AFG    1997 sp                m           25        34     6
    ##  4 Afghanist… AF    AFG    1997 sp                m           35        44     3
    ##  5 Afghanist… AF    AFG    1997 sp                m           45        54     5
    ##  6 Afghanist… AF    AFG    1997 sp                m           55        64     2
    ##  7 Afghanist… AF    AFG    1997 sp                m           65        65     0
    ##  8 Afghanist… AF    AFG    1997 sp                f            0        14     5
    ##  9 Afghanist… AF    AFG    1997 sp                f           15        24    38
    ## 10 Afghanist… AF    AFG    1997 sp                f           25        34    36
    ## # ℹ 76,036 more rows
…
    unlist(lapply(population2, class))

    ##     country        year  population 
    ## "character"   "numeric"   "numeric"

#### 3.2.2 Perform a pivot operation to tidy the data, storing the result in `population3`.

    population3 <- population2 %>%
      pivot_wider(names_from = year,
                  values_from = population,
                  names_prefix = "population_")
    population3

    ## # A tibble: 219 × 20
    ##    country       population_1995 population_1996 population_1997 population_1998
    ##    <chr>                   <dbl>           <dbl>           <dbl>           <dbl>
    ##  1 Afghanistan          17586073        18415307        19021226        19496836
    ##  2 Albania               3357858         3341043         3331317         3325456
    ##  3 Algeria              29315463        29845208        30345466        30820435
    ##  4 American Sam…           52874           53926           54942           55899
    ##  5 Andorra                 63854           64274           64090           63799
    ##  6 Angola               12104952        12451945        12791388        13137542
    ##  7 Anguilla                 9807           10063           10305           10545
    ##  8 Antigua and …           68349           70245           72232           74206
    ##  9 Argentina            34833168        35264070        35690778        36109342
    ## 10 Armenia               3223173         3173425         3137652         3112958
    ## # ℹ 209 more rows
    ## # ℹ 15 more variables: population_1999 <dbl>, population_2000 <dbl>,
    ## #   population_2001 <dbl>, population_2002 <dbl>, population_2003 <dbl>,
    ## #   population_2004 <dbl>, population_2005 <dbl>, population_2006 <dbl>,
    ## #   population_2007 <dbl>, population_2008 <dbl>, population_2009 <dbl>,
    ## #   population_2010 <dbl>, population_2011 <dbl>, population_2012 <dbl>,
    ## #   population_2013 <dbl>
…
<span style="color: red"> WE IDENTIFIED THAT ONLY ONE VARIABLE THAT CAN
BE JOIN BETWEEN DATASETS, PERFORMING THE LEFT\_JOIN FROM `who_tidy` TO
`population_tidy` with variable `year` as the key reference. </span>

#### 3.3.2 Rename columns as needed to align variable names between datasets.

    # No need to *rename* the mentioned columns since both datasets contain variable `year` already and as numeric datatype already

#### 3.3.3 Join the datasets into a tibble called `tuberculosis`.

    tuberculosis <- left_join(x = who_tidy, y = population_tidy, by = c("country", "year"))
    tuberculosis

    ## # A tibble: 76,046 × 10
    ##    country    iso2  iso3   year tuberculosis_type sex   age_from age_until cases
    ##    <chr>      <chr> <chr> <dbl> <chr>             <chr>    <dbl>     <dbl> <dbl>
    ##  1 Afghanist… AF    AFG    1997 sp                m            0        14     0
    ##  2 Afghanist… AF    AFG    1997 sp                m           15        24    10
    ##  3 Afghanist… AF    AFG    1997 sp                m           25        34     6
    ##  4 Afghanist… AF    AFG    1997 sp                m           35        44     3
    ##  5 Afghanist… AF    AFG    1997 sp                m           45        54     5
    ##  6 Afghanist… AF    AFG    1997 sp                m           55        64     2
    ##  7 Afghanist… AF    AFG    1997 sp                m           65        65     0
    ##  8 Afghanist… AF    AFG    1997 sp                f            0        14     5
    ##  9 Afghanist… AF    AFG    1997 sp                f           15        24    38
    ## 10 Afghanist… AF    AFG    1997 sp                f           25        34    36
    ## # ℹ 76,036 more rows
    ## # ℹ 1 more variable: population <dbl>

## Clean Up Data

#### 3.4.1 Remove unnecessary variables from `tuberculosis`.

#### 3.4.2 Filter out `NA` values

#### 3.4.3 Save the cleaned data back into `tuberculosis`.

    tuberculosis <- tuberculosis %>%
      select(-iso2, -iso3) %>%
      na.omit()
    tuberculosis

    ## # A tibble: 75,234 × 8
    ##    country      year tuberculosis_type sex   age_from age_until cases population
    ##    <chr>       <dbl> <chr>             <chr>    <dbl>     <dbl> <dbl>      <dbl>
    ##  1 Afghanistan  1997 sp                m            0        14     0   19021226
    ##  2 Afghanistan  1997 sp                m           15        24    10   19021226
    ##  3 Afghanistan  1997 sp                m           25        34     6   19021226
    ##  4 Afghanistan  1997 sp                m           35        44     3   19021226
    ##  5 Afghanistan  1997 sp                m           45        54     5   19021226
    ##  6 Afghanistan  1997 sp                m           55        64     2   19021226
    ##  7 Afghanistan  1997 sp                m           65        65     0   19021226
    ##  8 Afghanistan  1997 sp                f            0        14     5   19021226
    ##  9 Afghanistan  1997 sp                f           15        24    38   19021226
    ## 10 Afghanistan  1997 sp                f           25        34    36   19021226
    ## # ℹ 75,224 more rows
…
