…
    heights = read_csv(file = "heights.csv")

    ## Rows: 1192 Columns: 6
    ## ── Column specification ────────────────────────────────────────────────────────
    ## Delimiter: ","
    ## chr (2): sex, race
    ## dbl (4): earn, height, ed, age
    ## 
    ## ℹ Use `spec()` to retrieve the full column specification for this data.
    ## ℹ Specify the column types or set `show_col_types = FALSE` to quiet this message.

    heights

    ## # A tibble: 1,192 × 6
    ##     earn height sex       ed   age race    
    ##    <dbl>  <dbl> <chr>  <dbl> <dbl> <chr>   
    ##  1 50000   74.4 male      16    45 white   
    ##  2 60000   65.5 female    16    58 white   
    ##  3 30000   63.6 female    16    29 white   
    ##  4 50000   63.1 female    16    91 other   
    ##  5 51000   63.4 female    17    39 white   
    ##  6  9000   64.4 female    15    26 white   
    ##  7 29000   61.7 female    12    49 white   
    ##  8 32000   72.7 male      17    46 white   
    ##  9  2000   72.0 male      15    21 hispanic
    ## 10 27000   72.2 male      12    26 white   
    ## # ℹ 1,182 more rows
…
    heights_dummy = read_csv(file = "heights2.csv")

    ## Rows: 1192 Columns: 6
    ## ── Column specification ────────────────────────────────────────────────────────
    ## Delimiter: ","
    ## chr (2): sex, race
    ## dbl (4): earn, height, ed, age
    ## 
    ## ℹ Use `spec()` to retrieve the full column specification for this data.
    ## ℹ Specify the column types or set `show_col_types = FALSE` to quiet this message.

    heights_dummy

    ## # A tibble: 1,192 × 6
    ##     earn height sex       ed   age race    
    ##    <dbl>  <dbl> <chr>  <dbl> <dbl> <chr>   
    ##  1 50000   74.4 male      16    45 white   
    ##  2 60000   65.5 female    16    58 white   
    ##  3 30000   63.6 female    16    29 white   
    ##  4 50000   63.1 female    16    91 other   
    ##  5 51000   63.4 female    17    39 white   
    ##  6  9000   64.4 female    15    26 white   
    ##  7 29000   61.7 female    12    49 white   
    ##  8 32000   72.7 male      17    46 white   
    ##  9  2000   72.0 male      15    21 hispanic
    ## 10 27000   72.2 male      12    26 white   
    ## # ℹ 1,182 more rows
…
